Bayesian Data Analysis
…
i.e., increasing \(X\) by 1 unit changes the success odds by a multiplicative factor of \(e^{\beta_{1}}\)

Or, \[\frac{w_2}{w_1} = e^{\beta_{1}}\]

i.e., \(e^{\beta_{1}}\) is the odds ratio for a unit increase in \(X\).

Example: Rain in Perth

Suppose we find ourselves in Australia, the city of Perth specifically. Located on the southwest coast, Perth experiences dry summers and wet winters. Our goal will be to predict whether or not it will rain tomorrow. We’re going to use today’s humidity as a predictor. Here’s a quick look at the data.

# A tibble: 280 × 3
   day_of_year raintomorrow humidity9am
         <dbl> <fct>              <int>
 1          45 No                    55
 2          11 No                    43
 3         261 Yes                   62
 4         347 No                    53
 5         357 No                    65
 6         254 No                    84
 7         364 No                    48
 8         293 No                    51
 9         304 Yes                   47
10         231 Yes                   90
# ℹ 270 more rows
…
\[\lambda(x) = \mbox{exp}(\alpha + \beta x)\] to \[\begin{eqnarray*}
\lambda(x+1) &=& \mbox{exp}(\alpha + \beta (x+1)) \\
&=& \lambda(x)e^{\beta}
\end{eqnarray*}\]

Each unit increase in \(X\) multiplies the mean response (expected count) by \(e^{\beta_1}\).

Example - Fabric Faults

Data: Numbers of faults found in 32 rolls of fabric produced in a particular factory (Hinde, J. (1982))

Predictor: the length of each roll.

# A tibble: 32 × 2
   length faults
    <dbl>  <dbl>
 1    551      6
 2    651      4
 3    832     17
 4    375      9
 5    715     14
 6    868      8
 7    271      5
 8    630      7
 9    491      7
10    372      7
# ℹ 22 more rows
…
