Bayesian Data Analysis
…
We exclude samples from the initial period (burn-in).

We “wait long enough” to get a set of samples that are representative of the target (posterior). distribution.

# Create a dataset (tibble) of samples
# chose a "burn-in" 
n_burnin <- 100
# Remove the first sample from mu_s and sigma_s
post_samps <- tibble(sample_index = 1:(n_iter-n_burnin),
                     mu_s = mu_s[-(1:n_burnin)], 
                     sigma_s = sigma_s[-(1:n_burnin)])
post_samps

# A tibble: 9,900 × 3
   sample_index  mu_s sigma_s
          <int> <dbl>   <dbl>
 1            1  87.9    20.3
 2            2  86.0    20.2
 3            3  85.0    21.8
 4            4  86.4    18.8
 5            5  86.1    21.3
 6            6  88.0    21.7
 7            7  86.8    21.4
 8            8  86.5    20.3
 9            9  87.6    20.3
10           10  87.5    20.2
# ℹ 9,890 more rows
…
