Bayesian Data Analysis
…
Initializing model

Output - Parameter Uncertainty

library(tidybayes)

mcmc.matrix1 <- mod1$BUGSoutput$sims.matrix
par_samps1 <- mcmc.matrix1 %>% spread_draws(alpha,beta,sigma) 
par_samps1

# A tibble: 3,000 × 6
   .chain .iteration .draw alpha  beta sigma
    <int>      <int> <int> <dbl> <dbl> <dbl>
 1      1          1     1  86.6 0.649  17.3
 2      1          2     2  86.4 0.622  17.8
 3      1          3     3  86.4 0.687  18.0
 4      1          4     4  86.8 0.612  18.2
 5      1          5     5  86.7 0.591  18.0
 6      1          6     6  85.0 0.673  18.1
 7      1          7     7  86.2 0.641  18.1
 8      1          8     8  85.9 0.653  19.0
 9      1          9     9  86.1 0.647  18.2
10      1         10    10  87.8 0.471  18.0
# ℹ 2,990 more rows
…
Posterior Draws of \(\mu_i\)

For each sample draw (simulation) \(s= 1, \ldots , S\) of the parameters from the posterior distribution we can obtain \(\mu_i^{(s)} = \beta_0^{(s)} + \beta_1^{(s)}(x_{i} - \bar{x})\)

# A tibble: 1,302,000 × 5
# Groups:   mu_ind [434]
   mu_ind  mu.i .chain .iteration .draw
    <int> <dbl>  <int>      <int> <int>
 1      1 100.       1          1     1
 2      1  99.5      1          2     2
 3      1 101.       1          3     3
 4      1  99.8      1          4     4
 5      1  99.2      1          5     5
 6      1  99.2      1          6     6
 7      1  99.7      1          7     7
 8      1  99.7      1          8     8
 9      1  99.8      1          9     9
10      1  97.8      1         10    10
# ℹ 1,301,990 more rows
…
Posterior Draws of \(\mu_i\)

For each draw (simulation) \(s= 1, \ldots , S\) of the parameters from the posterior distribution we can obtain \(\mu_i^{(s)} = \beta_0^{(s)} + \beta_1^{(s)}(x_{i} - \bar{x})\)

# A tibble: 1,302,000 × 5
# Groups:   mu_ind [434]
   mu_ind  mu.i .chain .iteration .draw
    <int> <dbl>  <int>      <int> <int>
 1      1 100.       1          1     1
 2      1  99.5      1          2     2
 3      1 101.       1          3     3
 4      1  99.8      1          4     4
 5      1  99.2      1          5     5
 6      1  99.2      1          6     6
 7      1  99.7      1          7     7
 8      1  99.7      1          8     8
 9      1  99.8      1          9     9
10      1  97.8      1         10    10
# ℹ 1,301,990 more rows
…
Summary for \(\mu_i\) - Point Estimate + Credible Interval

mu_ind <- 1:nrow(kidiq)
mu_samps1 <- mcmc.matrix1 %>% spread_draws(mu.i[mu_ind]) 
mu_summary1 <- mu_samps1 %>% 
                median_qi(.width = 0.95)
mu_summary1

# A tibble: 434 × 7
   mu_ind  mu.i .lower .upper .width .point .interval
    <int> <dbl>  <dbl>  <dbl>  <dbl> <chr>  <chr>    
 1      1  99.7   96.8  103.    0.95 median qi       
 2      2  80.3   78.2   82.4   0.95 median qi       
 3      3  96.3   93.8   98.7   0.95 median qi       
 4      4  86.5   84.8   88.2   0.95 median qi       
 5      5  82.4   80.5   84.3   0.95 median qi       
 6      6  91.6   89.7   93.6   0.95 median qi       
 7      7 111.   106.   115.    0.95 median qi       
 8      8 102.    98.8  105.    0.95 median qi       
 9      9  75.6   72.9   78.3   0.95 median qi       
10     10  83.8   82.0   85.6   0.95 median qi       
# ℹ 424 more rows
…
Credible vs prediction interval for kidiq example

Let’s consider the difference between the credible interval and the prediction interval for the Kid’s IQ when the Mother’s IQ = 120.

par_samps1 <- mcmc.matrix1 %>% spread_draws(mu_pred,ytilde) 
par_samps1

# A tibble: 3,000 × 5
   .chain .iteration .draw mu_pred ytilde
    <int>      <int> <int>   <dbl>  <dbl>
 1      1          1     1    98.5  112. 
 2      1          2     2    96.5  102. 
 3      1          3     3    99.3  117. 
 4      1          4     4   101.    79.3
 5      1          5     5    99.6  118. 
 6      1          6     6   102.   131. 
 7      1          7     7    99.8   69.0
 8      1          8     8    97.2   87.7
 9      1          9     9    98.1  132. 
10      1         10    10   101.   109. 
# ℹ 2,990 more rows
…
mu_ind <- 1:nrow(kidiq)
mu_samps2 <- mcmc.matrix2 %>% spread_draws(mu.i[mu_ind]) 
mu_summary2 <- mu_samps2 %>% 
                median_qi(.width = 0.95)

mu_summary2

# A tibble: 434 × 7
   mu_ind  mu.i .lower .upper .width .point .interval
    <int> <dbl>  <dbl>  <dbl>  <dbl> <chr>  <chr>    
 1      1  98.5   95.4  102.    0.95 median qi       
 2      2  83.1   80.5   85.7   0.95 median qi       
 3      3  95.8   93.2   98.3   0.95 median qi       
 4      4  88.0   86.0   90.1   0.95 median qi       
 5      5  84.8   82.4   87.1   0.95 median qi       
 6      6  93.0   87.2   99.0   0.95 median qi       
 7      7 107.   102.   112.    0.95 median qi       
 8      8 100.    96.9  104.    0.95 median qi       
 9      9  79.3   76.1   82.6   0.95 median qi       
10     10  85.9   83.7   88.1   0.95 median qi       
# ℹ 424 more rows
…
