Bayesian Data Analysis
…
Class Example

We have data containing a sub-sample of outcomes for the annual Cherry Blossom Ten Mile race in Washington, D.C.

library(bayesrules)
data("cherry_blossom_sample")

running_dat <- cherry_blossom_sample
running_dat

# A tibble: 252 × 6
   runner   age   net   gun  year previous
   <fct>  <int> <dbl> <dbl> <int>    <int>
 1 1         53  84.0  87.0  2002        0
 2 1         54  74.3  74.6  2003        1
 3 1         55  75.2  75.3  2004        2
 4 1         56  74.2  74.4  2005        3
 5 1         57  74.2  74.3  2006        4
 6 1         58  NA    74.8  2007        5
 7 1         59  NA    79.5  2008        6
 8 2         52  82.7  85.6  2001        0
 9 2         53  80.0  80.7  2002        1
10 2         54  88.1  94.8  2003        2
# ℹ 242 more rows
…
